"localCountry";"localBankCode";"localBranchId";"localAccountNumber";"localSuffix";"localIban";"localName";"localBic";"remoteCountry";"remoteBankName";"remoteBankLocation";"remoteBankCode";"remoteBranchId";"remoteAccountNumber";"remoteSuffix";"remoteIban";"remoteName";"remoteName1";"remoteBic";"uniqueId";"idForApplication";"groupId";"valutaDate";"date";"value_value";"value_currency";"fees_value";"fees_currency";"textKey";"textKeyExt";"transactionKey";"customerReference";"bankReference";"transactionCode";"transactionText";"primanota";"fiId";"purpose";"purpose1";"purpose2";"purpose3";"purpose4";"purpose5";"purpose6";"purpose7";"purpose8";"purpose9";"purpose10";"purpose11";"category";"category1";"category2";"category3";"category4";"category5";"category6";"category7";"period";"cycle";"executionDay";"firstExecutionDate";"lastExecutionDate";"nextExecutionDate";"type";"subType";"status";"charge";"remoteAddrStreet";"remoteAddrZipcode";"remoteAddrCity";"remotePhone";"unitId";"unitIdNameSpace";"units_value";"units_currency";"unitprice_value";"unitprice_currency";"commission_value";"commission_currency";"bankAccountId";"groupId"
"";"20041155";"";"535416200";"";"";"Felix Mauch";"";"";"";"";"";"";"";"";"";"FELIX MAUCH";"";"";"0";"0";"0";"2012/10/24";"2012/10/24";"40000/100";"EUR";"";"";"0";"0";"MSC";"";"POS 1499868867";"820";"";"";"";"ÜBERTRAG/ÜBERWEISUNG";"STOCKHOLM";"Ref. GX212297K3358323/36790";"";"";"";"";"";"";"";"";"";"";"";"";"";"";"";"";"";"unknown";"0";"0";"";"";"";"unknown";"unknown";"unknown";"unknown";"";"";"";"";"";"";"";"";"";"";"";"";"";"0"
"";"20041155";"";"535416200";"";"";"Felix Mauch";"";"";"";"";"";"";"";"";"";"";"";"";"0";"0";"0";"2012/11/05";"2012/11/05";"-31238/100";"EUR";"";"";"0";"0";"MSC";"";"POS 1512510849";"5";"";"";"";"LASTSCHRIFT EINZUG";"VISA-KARTE NR. 426354 XXXX";"0,00";"WOCHENBUCHUNG IHRER 02.11.";"FELIX MAUCH";"Ref. IV21230863922977/62181";"";"";"";"";"";"";"";"";"";"";"";"";"";"";"unknown";"0";"0";"";"";"";"unknown";"unknown";"unknown";"unknown";"";"";"";"";"";"";"";"";"";"";"";"";"";"0"
"";"20041155";"";"535416200";"";"";"Felix Mauch";"";"";"";"";"36010043";"";"0289789434";"";"";"FELIX MAUCH";"";"";"0";"0";"0";"2012/11/07";"2012/11/07";"-18000/100";"EUR";"";"";"0";"0";"MSC";"";"POS 1514891338";"820";"";"";"";"ÜBERTRAG/ÜBERWEISUNG";"COMDIRECT";"Ref. HZ512311N0559650/2";"";"";"";"";"";"";"";"";"";"";"";"";"";"";"";"";"";"unknown";"0";"0";"";"";"";"unknown";"unknown";"unknown";"unknown";"";"";"";"";"";"";"";"";"";"";"";"";"";"0"
