'01/08/2008';'CARTE 12345';'Withdrawal';'9.3';'Alimentation';'Restaurant';;'CARTE 12345 31/07/08  QUICK';'                                                                   ';
'02/09/2008';'REMISE CHEQUE';'Deposit';'1498.87';'Salaire';'Salaire net';;'REMISE CHEQUE       0479273 246 DE    1 CHQ 01788';'                                                                ';
'02/09/2008';'CARTE 497301971759';'Withdrawal';'71.13';'Alimentation';'Supermarché';;'CARTE 12345 01/09/08  CARREFOUR BARENT';'                                                     ';
